%YAML 1.1
%TAG !u! tag:unity3d.com,2011:
--- !u!1 &6322529800606955201
GameObject:
  m_ObjectHideFlags: 0
  m_CorrespondingSourceObject: {fileID: 0}
  m_PrefabInstance: {fileID: 0}
  m_PrefabAsset: {fileID: 0}
  serializedVersion: 6
  m_Component:
  - component: {fileID: 6322529800606955211}
  - component: {fileID: 6322529800606955210}
  - component: {fileID: 6322529800606955205}
  - component: {fileID: 6322529800606955204}
  - component: {fileID: 6322529800606955207}
  - component: {fileID: 6322529800606955206}
  m_Layer: 0
  m_Name: Enemy
  m_TagString: Untagged
  m_Icon: {fileID: 0}
  m_NavMeshLayer: 0
  m_StaticEditorFlags: 0
  m_IsActive: 1
--- !u!4 &6322529800606955211
Transform:
  m_ObjectHideFlags: 0
  m_CorrespondingSourceObject: {fileID: 0}
  m_PrefabInstance: {fileID: 0}
  m_PrefabAsset: {fileID: 0}
  m_GameObject: {fileID: 6322529800606955201}
  m_LocalRotation: {x: 0, y: 0, z: 0, w: 1}
  m_LocalPosition: {x: 0, y: 0.52, z: 0}
  m_LocalScale: {x: 1, y: 1, z: 1}
  m_Children:
  - {fileID: 6897523457893076318}
  m_Father: {fileID: 0}
  m_RootOrder: 0
  m_LocalEulerAnglesHint: {x: 0, y: 0, z: 0}
--- !u!33 &6322529800606955210
MeshFilter:
  m_ObjectHideFlags: 0
  m_CorrespondingSourceObject: {fileID: 0}
  m_PrefabInstance: {fileID: 0}
  m_PrefabAsset: {fileID: 0}
  m_GameObject: {fileID: 6322529800606955201}
  m_Mesh: {fileID: 10202, guid: 0000000000000000e000000000000000, type: 0}
--- !u!23 &6322529800606955205
MeshRenderer:
  m_ObjectHideFlags: 0
  m_CorrespondingSourceObject: {fileID: 0}
  m_PrefabInstance: {fileID: 0}
  m_PrefabAsset: {fileID: 0}
  m_GameObject: {fileID: 6322529800606955201}
  m_Enabled: 0
  m_CastShadows: 1
  m_ReceiveShadows: 1
  m_DynamicOccludee: 1
  m_MotionVectors: 1
  m_LightProbeUsage: 1
  m_ReflectionProbeUsage: 1
  m_RayTracingMode: 2
  m_RayTraceProcedural: 0
  m_RenderingLayerMask: 1
  m_RendererPriority: 0
  m_Materials:
  - {fileID: 10303, guid: 0000000000000000f000000000000000, type: 0}
  m_StaticBatchInfo:
    firstSubMesh: 0
    subMeshCount: 0
  m_StaticBatchRoot: {fileID: 0}
  m_ProbeAnchor: {fileID: 0}
  m_LightProbeVolumeOverride: {fileID: 0}
  m_ScaleInLightmap: 1
  m_ReceiveGI: 1
  m_PreserveUVs: 0
  m_IgnoreNormalsForChartDetection: 0
  m_ImportantGI: 0
  m_StitchLightmapSeams: 1
  m_SelectedEditorRenderState: 3
  m_MinimumChartSize: 4
  m_AutoUVMaxDistance: 0.5
  m_AutoUVMaxAngle: 89
  m_LightmapParameters: {fileID: 0}
  m_SortingLayerID: 0
  m_SortingLayer: 0
  m_SortingOrder: 0
  m_AdditionalVertexStreams: {fileID: 0}
--- !u!65 &6322529800606955204
BoxCollider:
  m_ObjectHideFlags: 0
  m_CorrespondingSourceObject: {fileID: 0}
  m_PrefabInstance: {fileID: 0}
  m_PrefabAsset: {fileID: 0}
  m_GameObject: {fileID: 6322529800606955201}
  m_Material: {fileID: 0}
  m_IsTrigger: 0
  m_Enabled: 1
  serializedVersion: 2
  m_Size: {x: 1, y: 1, z: 1}
  m_Center: {x: 0, y: 0, z: 0}
--- !u!114 &6322529800606955207
MonoBehaviour:
  m_ObjectHideFlags: 0
  m_CorrespondingSourceObject: {fileID: 0}
  m_PrefabInstance: {fileID: 0}
  m_PrefabAsset: {fileID: 0}
  m_GameObject: {fileID: 6322529800606955201}
  m_Enabled: 1
  m_EditorHideFlags: 0
  m_Script: {fileID: 11500000, guid: 2b22998bbb557cd4d8484f683de27143, type: 3}
  m_Name: 
  m_EditorClassIdentifier: 
  agent: {fileID: 0}
  objectiveInAttack: 0
  attackAB: 1
  objectiveA: {fileID: 0}
  objectiveB: {fileID: 0}
  Finalobjective: {fileID: 0}
  animNum: 0
  animator: {fileID: 3545158416629538852}
  zombie: {fileID: 7630141010922897229}
--- !u!195 &6322529800606955206
NavMeshAgent:
  m_ObjectHideFlags: 0
  m_CorrespondingSourceObject: {fileID: 0}
  m_PrefabInstance: {fileID: 0}
  m_PrefabAsset: {fileID: 0}
  m_GameObject: {fileID: 6322529800606955201}
  m_Enabled: 1
  m_AgentTypeID: 0
  m_Radius: 0.5
  m_Speed: 1
  m_Acceleration: 8
  avoidancePriority: 50
  m_AngularSpeed: 120
  m_StoppingDistance: 0.1
  m_AutoTraverseOffMeshLink: 1
  m_AutoBraking: 1
  m_AutoRepath: 1
  m_Height: 1
  m_BaseOffset: 0.5
  m_WalkableMask: 4294967295
  m_ObstacleAvoidanceType: 4
--- !u!1001 &6322529799239586093
PrefabInstance:
  m_ObjectHideFlags: 0
  serializedVersion: 2
  m_Modification:
    m_TransformParent: {fileID: 6322529800606955211}
    m_Modifications:
    - target: {fileID: 578376449398627443, guid: 6dc4cf4496348884d8ee27743ae38562, type: 3}
      propertyPath: m_RootOrder
      value: 0
      objectReference: {fileID: 0}
    - target: {fileID: 578376449398627443, guid: 6dc4cf4496348884d8ee27743ae38562, type: 3}
      propertyPath: m_LocalScale.x
      value: 1.1
      objectReference: {fileID: 0}
    - target: {fileID: 578376449398627443, guid: 6dc4cf4496348884d8ee27743ae38562, type: 3}
      propertyPath: m_LocalScale.y
      value: 1.1
      objectReference: {fileID: 0}
    - target: {fileID: 578376449398627443, guid: 6dc4cf4496348884d8ee27743ae38562, type: 3}
      propertyPath: m_LocalScale.z
      value: 1.1
      objectReference: {fileID: 0}
    - target: {fileID: 578376449398627443, guid: 6dc4cf4496348884d8ee27743ae38562, type: 3}
      propertyPath: m_LocalPosition.x
      value: 0
      objectReference: {fileID: 0}
    - target: {fileID: 578376449398627443, guid: 6dc4cf4496348884d8ee27743ae38562, type: 3}
      propertyPath: m_LocalPosition.y
      value: -0.45099998
      objectReference: {fileID: 0}
    - target: {fileID: 578376449398627443, guid: 6dc4cf4496348884d8ee27743ae38562, type: 3}
      propertyPath: m_LocalPosition.z
      value: 0
      objectReference: {fileID: 0}
    - target: {fileID: 578376449398627443, guid: 6dc4cf4496348884d8ee27743ae38562, type: 3}
      propertyPath: m_LocalRotation.w
      value: 1
      objectReference: {fileID: 0}
    - target: {fileID: 578376449398627443, guid: 6dc4cf4496348884d8ee27743ae38562, type: 3}
      propertyPath: m_LocalRotation.x
      value: -0
      objectReference: {fileID: 0}
    - target: {fileID: 578376449398627443, guid: 6dc4cf4496348884d8ee27743ae38562, type: 3}
      propertyPath: m_LocalRotation.y
      value: -0
      objectReference: {fileID: 0}
    - target: {fileID: 578376449398627443, guid: 6dc4cf4496348884d8ee27743ae38562, type: 3}
      propertyPath: m_LocalRotation.z
      value: -0
      objectReference: {fileID: 0}
    - target: {fileID: 578376449398627443, guid: 6dc4cf4496348884d8ee27743ae38562, type: 3}
      propertyPath: m_LocalEulerAnglesHint.x
      value: 0
      objectReference: {fileID: 0}
    - target: {fileID: 578376449398627443, guid: 6dc4cf4496348884d8ee27743ae38562, type: 3}
      propertyPath: m_LocalEulerAnglesHint.y
      value: 0
      objectReference: {fileID: 0}
    - target: {fileID: 578376449398627443, guid: 6dc4cf4496348884d8ee27743ae38562, type: 3}
      propertyPath: m_LocalEulerAnglesHint.z
      value: 0
      objectReference: {fileID: 0}
    - target: {fileID: 4493914613880827488, guid: 6dc4cf4496348884d8ee27743ae38562, type: 3}
      propertyPath: m_Name
      value: Zombie1
      objectReference: {fileID: 0}
    - target: {fileID: 7389507112651452681, guid: 6dc4cf4496348884d8ee27743ae38562, type: 3}
      propertyPath: m_UpdateMode
      value: 1
      objectReference: {fileID: 0}
    m_RemovedComponents: []
  m_SourcePrefab: {fileID: 100100000, guid: 6dc4cf4496348884d8ee27743ae38562, type: 3}
--- !u!1 &7630141010922897229 stripped
GameObject:
  m_CorrespondingSourceObject: {fileID: 4493914613880827488, guid: 6dc4cf4496348884d8ee27743ae38562, type: 3}
  m_PrefabInstance: {fileID: 6322529799239586093}
  m_PrefabAsset: {fileID: 0}
--- !u!4 &6897523457893076318 stripped
Transform:
  m_CorrespondingSourceObject: {fileID: 578376449398627443, guid: 6dc4cf4496348884d8ee27743ae38562, type: 3}
  m_PrefabInstance: {fileID: 6322529799239586093}
  m_PrefabAsset: {fileID: 0}
--- !u!95 &3545158416629538852 stripped
Animator:
  m_CorrespondingSourceObject: {fileID: 7389507112651452681, guid: 6dc4cf4496348884d8ee27743ae38562, type: 3}
  m_PrefabInstance: {fileID: 6322529799239586093}
  m_PrefabAsset: {fileID: 0}
