[api-updater (non-obsolete-error-filter)] 15/2/2022 3:48:04 p. m. : Starting C:/Program Files/Unity/Hub/Editor/2020.3.25f1/Editor/Data/Tools/ScriptUpdater/APIUpdater.NonObsoleteApiUpdaterDetector.exe
[api-updater (non-obsolete-error-filter)] 
----------------------------------
jit/startup time      : 22176,4037ms
moved types parse time: 176ms
candidates parse time : 58ms
C# parse time         : 1962ms
candidates check time : 220ms
console write time    : 18ms

[api-updater (non-obsolete-error-filter)] 15/2/2022 4:45:57 p. m. : Starting C:/Program Files/Unity/Hub/Editor/2020.3.25f1/Editor/Data/Tools/ScriptUpdater/APIUpdater.NonObsoleteApiUpdaterDetector.exe
[api-updater (non-obsolete-error-filter)] 
----------------------------------
jit/startup time      : 3718,9286ms
moved types parse time: 351ms
candidates parse time : 70ms
C# parse time         : 1228ms
candidates check time : 100ms
console write time    : 17ms

[api-updater (non-obsolete-error-filter)] 15/2/2022 4:46:06 p. m. : Starting C:/Program Files/Unity/Hub/Editor/2020.3.25f1/Editor/Data/Tools/ScriptUpdater/APIUpdater.NonObsoleteApiUpdaterDetector.exe
[api-updater (non-obsolete-error-filter)] 
----------------------------------
jit/startup time      : 239,3568ms
moved types parse time: 75ms
candidates parse time : 2ms
C# parse time         : 259ms
candidates check time : 41ms
console write time    : 0ms

[api-updater (non-obsolete-error-filter)] 15/2/2022 4:46:12 p. m. : Starting C:/Program Files/Unity/Hub/Editor/2020.3.25f1/Editor/Data/Tools/ScriptUpdater/APIUpdater.NonObsoleteApiUpdaterDetector.exe
[api-updater (non-obsolete-error-filter)] 
----------------------------------
jit/startup time      : 221,1765ms
moved types parse time: 59ms
candidates parse time : 1ms
C# parse time         : 363ms
candidates check time : 57ms
console write time    : 0ms

[api-updater (non-obsolete-error-filter)] 15/2/2022 4:54:36 p. m. : Starting C:/Program Files/Unity/Hub/Editor/2020.3.25f1/Editor/Data/Tools/ScriptUpdater/APIUpdater.NonObsoleteApiUpdaterDetector.exe
[api-updater (non-obsolete-error-filter)] 
----------------------------------
jit/startup time      : 224,3984ms
moved types parse time: 72ms
candidates parse time : 1ms
C# parse time         : 314ms
candidates check time : 49ms
console write time    : 0ms

[api-updater (non-obsolete-error-filter)] 15/2/2022 4:55:00 p. m. : Starting C:/Program Files/Unity/Hub/Editor/2020.3.25f1/Editor/Data/Tools/ScriptUpdater/APIUpdater.NonObsoleteApiUpdaterDetector.exe
[api-updater (non-obsolete-error-filter)] 
----------------------------------
jit/startup time      : 110,3164ms
moved types parse time: 57ms
candidates parse time : 1ms
C# parse time         : 233ms
candidates check time : 47ms
console write time    : 0ms

[api-updater (non-obsolete-error-filter)] 15/2/2022 4:55:10 p. m. : Starting C:/Program Files/Unity/Hub/Editor/2020.3.25f1/Editor/Data/Tools/ScriptUpdater/APIUpdater.NonObsoleteApiUpdaterDetector.exe
[api-updater (non-obsolete-error-filter)] 
----------------------------------
jit/startup time      : 105,7542ms
moved types parse time: 64ms
candidates parse time : 1ms
C# parse time         : 433ms
candidates check time : 55ms
console write time    : 0ms

[api-updater (non-obsolete-error-filter)] 15/2/2022 5:40:29 p. m. : Starting C:/Program Files/Unity/Hub/Editor/2020.3.25f1/Editor/Data/Tools/ScriptUpdater/APIUpdater.NonObsoleteApiUpdaterDetector.exe
[api-updater (non-obsolete-error-filter)] 
----------------------------------
jit/startup time      : 2377,437ms
moved types parse time: 191ms
candidates parse time : 185ms
C# parse time         : 1423ms
candidates check time : 61ms
console write time    : 20ms

[api-updater (non-obsolete-error-filter)] 15/2/2022 5:40:33 p. m. : Starting C:/Program Files/Unity/Hub/Editor/2020.3.25f1/Editor/Data/Tools/ScriptUpdater/APIUpdater.NonObsoleteApiUpdaterDetector.exe
[api-updater (non-obsolete-error-filter)] 
----------------------------------
jit/startup time      : 214,4258ms
moved types parse time: 95ms
candidates parse time : 1ms
C# parse time         : 294ms
candidates check time : 40ms
console write time    : 0ms

[api-updater (non-obsolete-error-filter)] 15/2/2022 5:42:28 p. m. : Starting C:/Program Files/Unity/Hub/Editor/2020.3.25f1/Editor/Data/Tools/ScriptUpdater/APIUpdater.NonObsoleteApiUpdaterDetector.exe
[api-updater (non-obsolete-error-filter)] 
----------------------------------
jit/startup time      : 123,6708ms
moved types parse time: 99ms
candidates parse time : 2ms
C# parse time         : 279ms
candidates check time : 43ms
console write time    : 0ms

[api-updater (non-obsolete-error-filter)] 17/2/2022 5:09:54 p. m. : Starting C:/Program Files/Unity/Hub/Editor/2020.3.25f1/Editor/Data/Tools/ScriptUpdater/APIUpdater.NonObsoleteApiUpdaterDetector.exe
[api-updater (non-obsolete-error-filter)] 
----------------------------------
jit/startup time      : 8531,5587ms
moved types parse time: 234ms
candidates parse time : 3ms
C# parse time         : 1449ms
candidates check time : 67ms
console write time    : 16ms

[api-updater (non-obsolete-error-filter)] 21/2/2022 5:41:05 p. m. : Starting C:/Program Files/Unity/Hub/Editor/2020.3.25f1/Editor/Data/Tools/ScriptUpdater/APIUpdater.NonObsoleteApiUpdaterDetector.exe
[api-updater (non-obsolete-error-filter)] 
----------------------------------
jit/startup time      : 7897,7972ms
moved types parse time: 363ms
candidates parse time : 120ms
C# parse time         : 3445ms
candidates check time : 441ms
console write time    : 44ms

